…
mutatejoin%>%group_by(AverageSAT_compared_to_all_US)%>%summarize(distinctAPstudents = n_distinct(`AP Test Takers`, 4))%>%na.omit()

## # A tibble: 2 x 2
##   AverageSAT_compared_to_all_US distinctAPstudents
##   <chr>                                      <int>
## 1 above average                                 21
## 2 below average                                120

mutatejoin%>%group_by(SchoolName)%>%summarize(medianAPpass= median(`Number of Exams with scores 3 4 or 5`))

## # A tibble: 254 x 2
##    SchoolName                                         medianAPpass
##    <chr>                                                     <dbl>
##  1 A PHILIP RANDOLPH CAMPUS                                     72
##  2 ABRAHAM LINCOLN HS                                           18
##  3 Academy for College Preparation and Career Explora            7
##  4 Academy for Language and Technology                          20
##  5 Academy for Scholarship and Entrepreneurship: A Co           NA
##  6 Academy for Social Action: A College Board School            NA
##  7 ACADEMY OF AMER. STUDIES HS                                 119
##  8 Academy of Finance and  Enterprise                           40
##  9 Academy of Urban Planning                                    10
## 10 ACORN COMMUNITY HIGH SCHOOL                                  NA
## # … with 244 more rows
…
## Warning in var(`SAT Critical Reading Avg. Score`, `SAT Writing Avg. Score`): NAs
## introduced by coercion

## # A tibble: 3 x 2
##   AverageSAT_compared_to_all_US var_verbal
##   <chr>                              <dbl>
## 1 above average                      3212.
## 2 below average                      1244.
## 3 <NA>                                 NA

mutatejoin%>%group_by(`SCHOOL NAME`, SchoolName) %>% summarize(meanSAT_to_AP= mean(TotalSATScore/`Number of Exams with scores 3 4 or 5`, na.rm=T))%>%na.omit()

## # A tibble: 151 x 3
## # Groups:   SCHOOL NAME [151]
##    `SCHOOL NAME`                         SchoolName                meanSAT_to_AP
##    <chr>                                 <chr>                             <dbl>
##  1 A. PHILIP RANDOLPH CAMPUS HIGH SCHOOL A PHILIP RANDOLPH CAMPUS           18.2
##  2 ABRAHAM LINCOLN HIGH SCHOOL           ABRAHAM LINCOLN HS                 68.1
##  3 ACADEMY FOR COLLEGE PREPARATION AND … Academy for College Prep…         163. 
##  4 ACADEMY FOR LANGUAGE AND TECHNOLOGY   Academy for Language and…          47.6
##  5 ACADEMY OF AMERICAN STUDIES           ACADEMY OF AMER. STUDIES…          12.4
##  6 ACADEMY OF FINANCE AND ENTERPRISE     Academy of Finance and  …          32  
##  7 ACADEMY OF URBAN PLANNING             Academy of Urban Planning         106  
##  8 ART AND DESIGN HIGH SCHOOL            HS OF ART AND DESIGN               39.8
##  9 ASTOR COLLEGIATE ACADEMY              Astor Collegiate Academy           97.4
## 10 AVIATION CAREER & TECHNICAL EDUCATIO… AVIATION CAREER & TECHNI…          22.4
## # … with 141 more rows
…
